<?xml version="1.0" encoding="UTF-8"?>
<session version="1.0">
<refactoring comment="Delete resource &apos;clientServeurFX&apos;" deleteContents="false" description="Delete resource &apos;clientServeurFX&apos;" element1="/clientServeurFX" flags="7" id="org.eclipse.ltk.core.refactoring.delete.resources" resources="1" stamp="1584398776276"/>
</session>